^C:\USERS\CHOI\DOCUMENTS\VISUAL STUDIO 2013\PROJECTS\MYSYSTEMCLIENT\DEBUG\MAIN.OBJ
C:\USERS\CHOI\DOCUMENTS\VISUAL STUDIO 2013\PROJECTS\MYSYSTEMCLIENT\DEBUG\MYSYSTEMCLIENT.ILK
C:\USERS\CHOI\DOCUMENTS\VISUAL STUDIO 2013\PROJECTS\MYSYSTEMCLIENT\DEBUG\MYSYSTEMCLIENT.EXE
C:\USERS\CHOI\DOCUMENTS\VISUAL STUDIO 2013\PROJECTS\MYSYSTEMCLIENT\DEBUG\MYSYSTEMCLIENT.PDB
